v 20110115 2
C 40000 40000 0 0 0 title-B.sym
C 52700 44900 1 0 0 4051-1.sym
{
T 53000 47750 5 10 0 0 0 0 1
device=4051
T 54400 47600 5 10 1 1 0 6 1
refdes=U2
T 52700 44900 5 10 0 2 0 0 1
footprint=DIP-mM-P0254_N016_L2032_W0560
}
C 44700 41800 1 0 0 4N25-1.sym
{
T 45600 43800 5 10 0 0 0 0 1
device=4N25
T 46500 43600 5 10 1 1 0 6 1
refdes=U4
T 44700 41800 5 10 0 0 0 0 1
footprint=DIP-mM-P0254_N006_L0762_W0560
}
C 40200 49900 1 0 0 connector2-1.sym
{
T 40400 50900 5 10 0 0 0 0 1
device=CONNECTOR_2
T 40200 50700 5 10 1 1 0 0 1
refdes=CONN_3
T 40200 49900 5 10 0 0 0 0 1
footprint=H1x2-op
}
C 48500 43600 1 0 0 resistor-2.sym
{
T 48900 43950 5 10 0 0 0 0 1
device=RESISTOR
T 48700 43900 5 10 1 1 0 0 1
refdes=R2
T 48500 43600 5 10 0 0 0 0 1
footprint=RES-mM-P1016_L0635_W0229
T 48500 43600 5 10 0 1 0 0 1
value=3300
}
C 42100 50400 1 0 0 5V-plus-1.sym
C 42200 49800 1 0 0 gnd-1.sym
N 42300 50100 41900 50100 4
N 42300 50400 41900 50400 4
C 47000 41800 1 0 0 gnd-1.sym
N 46800 42100 47100 42100 4
C 49200 43700 1 0 0 5V-plus-1.sym
N 42600 43000 44700 43000 4
C 52700 42100 1 0 0 4051-1.sym
{
T 53000 44950 5 10 0 0 0 0 1
device=4051
T 54400 44800 5 10 1 1 0 6 1
refdes=U3
T 52700 42100 5 10 0 2 0 0 1
footprint=DIP-mM-P0254_N016_L2032_W0560
}
C 56800 42100 1 0 1 connector8-1.sym
{
T 56700 45300 5 10 0 0 0 6 1
device=CONNECTOR_8
T 56700 44700 5 10 1 1 0 6 1
refdes=CONN_5
T 56800 42100 5 10 0 0 180 6 1
footprint=H1x8-op
}
C 51700 50500 1 270 0 connector6-1.sym
{
T 53500 48700 5 10 0 0 270 0 1
device=CONNECTOR_6
T 53700 50400 5 10 1 1 270 0 1
refdes=CONN_2
T 51700 50500 5 10 0 0 0 0 1
footprint=CONNECTOR 3 2
}
C 48000 47800 1 0 0 led-2.sym
{
T 48800 48100 5 10 1 1 0 0 1
refdes=D2
T 48100 48400 5 10 0 0 0 0 1
device=LED
T 48000 47800 5 10 0 0 0 0 1
footprint=LED-P0254_D0300
}
C 49300 46400 1 90 0 pot-bourns.sym
{
T 48400 47200 5 10 0 0 90 0 1
device=VARIABLE_RESISTOR
T 48900 47000 5 10 1 1 90 0 1
refdes=R5
T 49300 46400 5 10 0 0 0 0 1
footprint=PT10LH01_Piher_Potentiometer
}
C 43700 47000 1 0 0 5V-plus-1.sym
N 44500 46900 43900 46900 4
N 43900 46700 43900 47000 4
N 44500 46700 43900 46700 4
N 54700 44400 55100 44400 4
N 55100 44100 54700 44100 4
N 54700 43800 55100 43800 4
N 55100 43500 54700 43500 4
N 54700 43200 55100 43200 4
N 55100 42900 54700 42900 4
N 54700 42600 55100 42600 4
N 55100 42300 54700 42300 4
C 48000 48000 1 180 0 resistor-2.sym
{
T 47600 47650 5 10 0 0 180 0 1
device=RESISTOR
T 47800 47700 5 10 1 1 180 0 1
refdes=R4
T 48000 48000 5 10 0 0 90 0 1
footprint=RES-mM-P1016_L0635_W0229
T 48000 48000 5 10 0 1 90 0 1
value=220
}
C 49200 47800 1 90 0 gnd-1.sym
C 43400 46400 1 270 0 gnd-1.sym
N 44500 46300 43700 46300 4
N 44100 46300 44100 46100 4
N 44100 46100 44500 46100 4
C 52000 48500 1 0 1 gnd-1.sym
C 53300 48800 1 180 0 5V-plus-1.sym
N 48000 46900 48700 46900 4
C 49400 46400 1 180 0 5V-plus-1.sym
C 49100 47600 1 180 1 gnd-1.sym
N 52700 46200 52300 46200 4
N 52300 46200 52300 43400 4
N 52300 43400 52700 43400 4
N 51200 48400 52200 48400 4
N 52200 48400 52200 48800 4
C 56900 44900 1 0 1 connector8-1.sym
{
T 56800 48100 5 10 0 0 0 6 1
device=CONNECTOR_8
T 56800 47500 5 10 1 1 0 6 1
refdes=CONN_4
T 56900 44900 5 10 0 0 180 6 1
footprint=H1x8-op
}
N 54700 47200 55200 47200 4
N 54700 46900 55200 46900 4
N 54700 46600 55200 46600 4
N 54700 46300 55200 46300 4
N 54700 46000 55200 46000 4
N 54700 45700 55200 45700 4
N 54700 45400 55200 45400 4
N 54700 45100 55200 45100 4
C 44500 44100 1 0 0 ATmega328_OK.sym
{
T 43295 46700 5 10 0 1 0 0 1
device=ATMEGA328
T 46400 49200 5 10 1 1 0 0 1
refdes=U1
T 44500 44100 5 10 0 0 0 0 1
footprint=DIP-mM-P0254_N028_L3556_W0560
}
C 44500 48800 1 180 0 resistor-2.sym
{
T 44100 48450 5 10 0 0 180 0 1
device=RESISTOR
T 44300 48500 5 10 1 1 180 0 1
refdes=R3
T 44500 48800 5 10 0 0 90 0 1
footprint=RES-mM-P1016_L0635_W0229
T 44500 48800 5 10 0 1 90 0 1
value=10000
}
C 43400 48700 1 0 0 5V-plus-1.sym
N 44500 48700 44500 49800 4
N 44500 49800 51200 49800 4
N 51200 49800 51200 48400 4
N 44500 47700 43200 47700 4
N 44500 47500 43500 47500 4
C 42000 47600 1 270 1 gnd-1.sym
C 43200 47500 1 0 1 capacitor-1.sym
{
T 43000 48200 5 10 0 0 0 6 1
device=CAPACITOR
T 43000 48000 5 10 1 1 0 6 1
refdes=C1
T 43000 48400 5 10 0 0 0 6 1
symversion=0.1
T 43200 47500 5 10 0 0 0 6 1
footprint=CAPPR-mM-P0200__D0500
}
C 43100 47000 1 270 1 crystal-1.sym
{
T 43600 47200 5 10 0 0 90 2 1
device=CRYSTAL
T 43400 47200 5 10 1 1 90 2 1
refdes=X1
T 43800 47200 5 10 0 0 90 2 1
symversion=0.1
T 43100 47000 5 10 0 0 0 6 1
footprint=XTAL-mM-P0488_L1105_W0465_SRo
}
N 43500 47500 43500 47000 4
N 43500 47000 43200 47000 4
C 43200 46800 1 0 1 capacitor-1.sym
{
T 43000 47500 5 10 0 0 0 6 1
device=CAPACITOR
T 43000 47300 5 10 1 1 0 6 1
refdes=C2
T 43000 47700 5 10 0 0 0 6 1
symversion=0.1
T 43200 46800 5 10 0 0 0 6 1
footprint=CAPPR-mM-P0200__D0500
}
C 42000 46900 1 270 1 gnd-1.sym
N 47100 48700 50500 48700 4
N 50500 48700 50500 48000 4
N 50500 48000 52800 48000 4
N 52800 48000 52800 48800 4
N 47100 48500 50300 48500 4
N 50300 48500 50300 47800 4
N 50300 47800 53400 47800 4
N 53400 47800 53400 48800 4
N 47100 48200 52500 48200 4
N 52500 48200 52500 48800 4
N 47100 48300 47100 48200 4
N 47100 47700 50000 47700 4
N 50000 46600 50000 47700 4
N 50000 46600 52700 46600 4
N 47100 46300 48000 46300 4
N 48000 46300 48000 46900 4
N 47100 45900 51500 45900 4
N 51500 45900 51500 46900 4
N 51500 46900 52700 46900 4
N 47100 45700 52000 45700 4
N 52000 45700 52000 47200 4
N 52000 47200 52700 47200 4
N 50000 43800 52700 43800 4
N 47100 44500 48000 44500 4
N 48000 44500 48000 43000 4
N 48000 43000 46800 43000 4
N 48500 43700 48000 43700 4
C 44200 42100 1 90 0 diode-1.sym
{
T 43600 42500 5 10 0 0 90 0 1
device=DIODE
T 43700 42400 5 10 1 1 90 0 1
refdes=D1
T 44200 42100 5 10 0 0 270 0 1
footprint=DIO-mM-P0254_D0254
}
C 43500 42200 1 180 0 resistor-2.sym
{
T 43100 41850 5 10 0 0 180 0 1
device=RESISTOR
T 43300 41900 5 10 1 1 180 0 1
refdes=R1
T 43500 42200 5 10 0 0 90 0 1
footprint=RES-mM-P1016_L0635_W0229
T 43500 42200 5 10 0 1 90 0 1
value=220
}
C 40900 41900 1 0 0 connector2-1.sym
{
T 41100 42900 5 10 0 0 0 0 1
device=CONNECTOR_1
T 40900 42700 5 10 1 1 0 0 1
refdes=CONN_1
T 40900 41900 5 10 0 0 0 0 1
footprint=H1x2-op
}
N 43500 42100 44700 42100 4
N 42600 43000 42600 42400 4
N 49800 44100 52700 44100 4
N 49600 44400 52700 44400 4
N 50500 45500 50500 42300 4
N 50500 42300 52700 42300 4
N 47100 45500 52700 45500 4
N 52700 45500 52700 45100 4
N 47100 45300 50000 45300 4
N 50000 45300 50000 43800 4
N 49800 44100 49800 45100 4
N 49800 45100 47100 45100 4
N 49600 44400 49600 44900 4
N 49600 44900 47100 44900 4
