%!PS-Adobe-3.0
%%Creator: gEDA gschem 1.6.1-20100214-22-ga30f00b
%%CreationDate: Wed Nov 26 11:54:00 2014
%%Title: /home/pclf/tripalium/PiNG/RECHERCHE_ACTION/circuit_bending_et_electronique_DIY/ritournelle/ritournelle_V_0_3.sch
%%Author: (null)
%%BoundingBox: 0 0 612 792
%%Orientation: Landscape
%%Pages: 1
%%Endcomments
%%BeginProlog
% Prolog for gEDA, define all the functions needed for rendering
% schematics on Postscript devices


% Draw a line from the second coordinate to the first
% x2 y2 x1 y1 width line -
/line {
    setlinewidth
    % pop off first element and moveto
    moveto
    % pop off remaining elements and draw a line segment
    lineto
    % draw it
    stroke
} bind def


% Draw a dot
% x y r dot -
/dot {
    0 360 arc fill
} bind def

% Draw a dot-dashed line, a bunch of lined segments,
% if the array element only has length two, draw a dot.
% [ [x2 y2 x1 y1] [x4 y4 x3 y3] [x5 y5] ... ] width dashed -
/width 0 def
/dashed {
    dup 2.0 div /width exch def
    setlinewidth
    % pop off each line segment and draw it as a dot or as a line
    {
	aload length 2 gt
	{ moveto lineto stroke}
	{ width dot } ifelse
    } forall
} bind def

% Draw an arc segment
% x y r ang1 ang2 width darc -
/darc {
    setlinewidth
    arc stroke
} bind def

% Draw a series of arc segment bits, if the array element only has a single
% element in it, draw a dot.
% [ [sa1 ea1] [sa2 ea2] ... ] x y r width dashedarc -
/x 0 def
/y 0 def
/dashedarc {
    dup /width exch def
    setlinewidth
    /r exch def  
    /y exch def
    /x exch def
    { aload length 1 gt
	{
	    % this element had two angles in it
	    % extract start and stop angles
	    x y r   % drop x y and r onto stack
		    % at this point we have: sa ea x y r
		    % we need                      x y r sa ea
		    % so..
	    5 -2 roll
	    % and add it to the current path, and draw it
	    arc stroke
	} {
	    % this element only had one angle in it, place a
	    % filled dot at the appropriate place
	    % compute center point of the arc using the angle
	    % that is on the top of the stack
	    dup   		% angle angle
	    cos r mul x add 	% angle x
	    exch		% x angle
	    sin r mul y add	% x y
	    width		% x y width/2
	    dot			% draw the dot
	} ifelse
    } forall

    % Now draw it
    stroke
} bind def

% Draw a box
% width height x y linethickness box -
/box {
    setlinewidth
    moveto
    exch dup 0 rlineto	 % w h, h w w 0      -- Draw bottom line
    exch 0 exch rlineto	 % h w, w h 0, w 0 h -- Draw right line 
    neg 0 rlineto	 % w, -w 0           -- Draw Top line
    closepath		 % finish and draw it
    stroke
} bind def			     

% Draw a filled box
% width height x y fbox -
/fbox {
    moveto
    exch dup 0 rlineto	
    exch 0 exch rlineto	
    neg 0 rlineto		
    closepath			
    fill			
} bind def

% Font reincoding utilities

% ISOLatin1Encoding, extended with remaining uncoded glyphs
/ISOLatin1Extended [
    /.notdef /Lslash /lslash /OE /oe /Scaron /scaron /Zcaron /zcaron
    /Ydieresis /trademark /bullet /dagger /daggerdbl /ellipsis /emdash
    /endash /fi /fl /florin /fraction /guilsinglleft /guilsinglright
    /perthousand /quotedblbase /quotedblleft /quotedblright
    /quotesinglbase /quotesingle /.notdef /.notdef /.notdef /space
    /exclam /quotedbl /numbersign /dollar /percent /ampersand
    /quoteright /parenleft /parenright /asterisk /plus /comma /minus
    /period /slash /zero /one /two /three /four /five /six /seven /eight
    /nine /colon /semicolon /less /equal /greater /question /at /A /B /C
    /D /E /F /G /H /I /J /K /L /M /N /O /P /Q /R /S /T /U /V /W /X /Y /Z
    /bracketleft /backslash /bracketright /asciicircum /underscore
    /quoteleft /a /b /c /d /e /f /g /h /i /j /k /l /m /n /o /p /q /r /s
    /t /u /v /w /x /y /z /braceleft /bar /braceright /asciitilde
    /.notdef /.notdef /.notdef /.notdef /.notdef /.notdef /.notdef
    /.notdef /.notdef /.notdef /.notdef /.notdef /.notdef /.notdef
    /.notdef /.notdef /.notdef /dotlessi /grave /acute /circumflex
    /tilde /macron /breve /dotaccent /dieresis /.notdef /ring /cedilla
    /.notdef /hungarumlaut /ogonek /caron /space /exclamdown /cent
    /sterling /currency /yen /brokenbar /section /dieresis /copyright
    /ordfeminine /guillemotleft /logicalnot /hyphen /registered /macron
    /degree /plusminus /twosuperior /threesuperior /acute /mu /paragraph
    /periodcentered /cedilla /onesuperior /ordmasculine /guillemotright
    /onequarter /onehalf /threequarters /questiondown /Agrave /Aacute
    /Acircumflex /Atilde /Adieresis /Aring /AE /Ccedilla /Egrave /Eacute
    /Ecircumflex /Edieresis /Igrave /Iacute /Icircumflex /Idieresis /Eth
    /Ntilde /Ograve /Oacute /Ocircumflex /Otilde /Odieresis /multiply
    /Oslash /Ugrave /Uacute /Ucircumflex /Udieresis /Yacute /Thorn
    /germandbls /agrave /aacute /acircumflex /atilde /adieresis /aring
    /ae /ccedilla /egrave /eacute /ecircumflex /edieresis /igrave
    /iacute /icircumflex /idieresis /eth /ntilde /ograve /oacute
    /ocircumflex /otilde /odieresis /divide /oslash /ugrave /uacute
    /ucircumflex /udieresis /yacute /thorn /ydieresis
] def

% `new-font-name' `encoding-vector' `old-font-name' RE -
/RE {
    findfont
    dup maxlength dict begin {
        1 index /FID ne { def } { pop pop } ifelse
    } forall
    /Encoding exch def
    dup /FontName exch def
    currentdict end definefont pop
} bind def

% Text handling functions, select the font and scale it, then we need
% only to apply the appropriate transformations to get the text
% justified into the right spots.  The bad thing here is that we don't
% do any kerning, so the output may look a bit strange.

% compute the height of one character and return lly and ury
% (char) charheight lly ury
/charheight {
    gsave			% push graphics state
	newpath			% clear current path
	0 0 moveto		% Set current point
	false charpath		% get path
	flattenpath		% flatten path
	pathbbox		% stack = llx lly urx ury
	exch pop		% stack = llx lly ury
	3 -1 roll pop		% stack = lly ury
    grestore			% pop graphics state
} bind def

% compute the height of a string, one character at a time
% (string) stringheight lly ury
/lly 0.0 def
/ury 0.0 def

/stringheight {
    /lly 0.0 def			% initial value of heightmin
    /ury 0.0 def			% initial value of heightmax
    {				% work through string
	( ) dup 0 4 -1 roll put	% create one character string
	charheight		% measure it's height
	dup ury gt {		% if ury gt heightmax
	    /ury exch def	% update with new value
	} {
	    pop			% else discard ury
	} ifelse
	dup lly lt {		% if lly lt heightmin
	    /lly exch def	% update with new value
	} {
	    pop			% else discard lly
	} ifelse
    } forall
    lly ury			% Return the results
} bind def

% calculate the string width taking into account the escapes.
/mystrx 0.0 def
/mystry 0.0 def
/mystresc false def

/mystringwidth {
    /mystrx 0.0 def
    /mystry 0.0 def
    /mystresc false def
    {				% work through string
	% did we process the escape character last?
	mystresc {
	    % last character was escape
	    % handle the escape
	    % is it an _ = 95?
	    dup 95 eq {
		pop  % we don't need the character anymore
		% toggle drawing overbars
		0.0 0.0 % make it like it never happened...
	    } {
		% otherwise measure the character 
		(\\ ) dup 1 4 -1 roll put % count a \ and the character
		stringwidth
	    } ifelse
	    % and reset the flag
	    /mystresc false def
	} {
	    % last character was not escape
	    % is this escape
	    dup 92 eq {
		% yes, escape character, set flag
		/mystresc true def
		pop % drop character
		0.0 0.0 % make like this character has no width and height
	    } {
		( ) dup 0 4 -1 roll put	% create one character string
		stringwidth		% measure it's height/width
	    } ifelse
	} ifelse
	% accumulate x and y movements
	mystry add /mystry exch def
	mystrx add /mystrx exch def
    } forall
    mystrx mystry % drop results on stack
} bind def

% Render a string with overbars
%
/escaped false def
/drawoverbar false def
/fontsize 0.0 def

%string1 string2 append -
/append {
    2 copy length exch length add % find new length
    string dup % string1 string2 string string
    4 2 roll % string string string1 string2
    2 index 0 3 index
    % string string string1 string2 string 0 string1
    putinterval % string string string1 string2
    exch length exch putinterval
} bind def

% If drawoverbar is set, draw a line of the same length as the given string
% string overbarshowline -
/overbarshowline {
    % print overbar if necessary
    stringwidth pop 0
    drawoverbar {
        rlineto
        gsave stroke grestore
    } {
        rmoveto
    } ifelse
} bind def

% Draws overbars for the given string, then shows the string itself
% string overbarshow
/overbarshow {
    /overbarshowacc () def
    /overbarshowtxt () def

    gsave
    fontsize 10.0 div setlinewidth
    0 fontsize rmoveto  % move to (0,overbarheight)

    {				% work through string
	escaped {
	    % the last character was the escape
	    % handle the escape
	    % is it an _ = 95?
	    dup 95 eq {
		pop  % we don't need the character anymore
                overbarshowacc overbarshowline
                % toggle drawing overbars
		/drawoverbar drawoverbar not def

                % Append the contents off the accumulator to the text
                % string we're eventually going to show
                /overbarshowtxt overbarshowtxt overbarshowacc append def

                % clear accumulator
                /overbarshowacc () def
	    } {
                % add to accumulator
                (\\ ) dup 1 4 -1 roll put
                overbarshowacc exch append
                /overbarshowacc exch def
	    } ifelse
	    % and reset the flag
	    /escaped false def
	} {
	    % check for escape character \ = 92
	    dup 92 eq {
		% yes, escape character, set flag
		/escaped true def
		pop % drop character
	    } {
                % add to accumulator
                ( ) dup 0 4 -1 roll put
                overbarshowacc exch append
                /overbarshowacc exch def
	    } ifelse
	} ifelse
    } forall
    % Catch any leftovers
    overbarshowacc overbarshowline
    overbarshowtxt overbarshowacc append

    grestore
    show
} bind def

% 
% hcenter rjustify vcenter vjustify spacing [(line1) (line2) ... ] rot x y size text -
/stringw 0.0 def
/stringh 0.0 def
/spacing 0.0 def
/strings [ ] def
/stringtxt ( ) def
/stringcount 0 def
/rot 0.0 def

/text {
    gsave	        % save state for later
    /drawoverbar false def      % start by not drawing overbars

    dup /fontsize exch def  % save font size for corrections later
    % do font selection 
    /gEDAFont findfont
    exch scalefont
    setfont

    % set up coordinates
    translate           % move origin to given point
    rotate		% rotate so that text is drawn
    0 0 moveto
    dup length /stringcount exch def			% Get number of strings
    /strings exch def     				% save strings
    /spacing exch def
    % do we have more than 1 string to render?
    stringcount 1 eq {
	/stringtxt strings aload pop def		% get the string 
	/stringw stringtxt mystringwidth pop neg def	% get the -width
	/stringh stringtxt stringheight exch pop neg def% get the -height

	% First do vertical calculations
	% hcenter rjustify vcenter vjustify 
	% vertical justification
	{ 0 stringh rmoveto } if 
	% vertical center
	{ 0 stringh 0.3571425 mul rmoveto } if  % not 0.5, so that
						% it looks nicer
	% Then do horizontal calculations
	% right justify
	{ stringw 0 rmoveto } if
	% center
	{ stringw 2.0 div 0 rmoveto } if
	% Draw the text
	stringtxt overbarshow
    } {
	% More than one line, compute bounding box for the text

	% vertical height, don't use the actual hieght of the characters
	% assume that the user wants to make the baselines line up with two
	% text boxes placed side by side
	/stringh stringcount spacing mul neg def
	% Now figure out horizontal size, this amounts to keeping track
	% of the longest string
	/stringw 0.0 def
	strings {
	    mystringwidth pop
	    dup stringw gt {
		/stringw exch def
	    } {
		pop
	    } ifelse
	} forall
	/stringw stringw neg def 	% get the -width
	
	% First do vertical calculations
	% hcenter rjustify vcenter vjustify 
	% vertical justification
	{ 0 stringh fontsize add rmoveto } if 
	% vertical center
	{ 0 stringh 0.5 mul rmoveto } if 
	% Then do horizontal calculations
	% right justify
	{ stringw 0 rmoveto } if
	% center
	{ stringw 2.0 div 0 rmoveto } if
	% now move up to the first line and begin rendering
	0 stringcount 1 sub spacing mul rmoveto
	strings {
	    gsave		% Save starting point
	    overbarshow		% render the text
	    grestore
	    0 spacing neg rmoveto
	} forall
    } ifelse
    grestore 	% Restore old state
} bind def


%%EndProlog
%%Page: 1 1
/gEDAFont ISOLatin1Extended /Helvetica RE
2 setlinecap
0.072000 0.072000 scale
7485 499 translate 90 rotate
0.588235 0.588235 scale
-40000 -40000 translate
gsave
40000 40000 57000 40000 10 line
57000 40000 57000 51000 10 line
57000 51000 40000 51000 10 line
40000 51000 40000 40000 10 line
52900 40600 52900 40000 10 line
gsave
false false false false 208.000000 [(FILE:) ] 0 49500 40400 144.444443 text
grestore
gsave
false false false false 208.000000 [(REVISION:) ] 0 53000 40400 144.444443 text
grestore
gsave
false false false false 208.000000 [(DRAWN BY: ) ] 0 53000 40100 144.444443 text
grestore
gsave
false false false false 208.000000 [(PAGE) ] 0 49500 40100 144.444443 text
grestore
gsave
false false false false 208.000000 [(OF) ] 0 51200 40100 144.444443 text
grestore
gsave
false false false false 208.000000 [(TITLE) ] 0 49500 40700 144.444443 text
grestore
49400 40000 57000 40000 10 line
57000 40000 57000 41400 10 line
57000 41400 49400 41400 10 line
49400 41400 49400 40000 10 line
49400 40600 57000 40600 10 line
grestore
gsave
52700 47200 53000 47200 10 line
gsave
false true false false 208.000000 [(11) ] 0 52900 47250 144.444443 text
grestore
gsave
false false false false 208.000000 [(A) ] 0 53050 47200 144.444443 text
grestore
52700 46900 53000 46900 10 line
gsave
false true false false 208.000000 [(10) ] 0 52900 46950 144.444443 text
grestore
gsave
false false false false 208.000000 [(B) ] 0 53050 46900 144.444443 text
grestore
52700 46600 53000 46600 10 line
gsave
false true false false 208.000000 [(9) ] 0 52900 46650 144.444443 text
grestore
gsave
false false false false 208.000000 [(C) ] 0 53050 46600 144.444443 text
grestore
52700 46200 53000 46200 10 line
gsave
false true false false 208.000000 [(3) ] 0 52900 46250 144.444443 text
grestore
gsave
false false false false 208.000000 [(X) ] 0 53050 46200 144.444443 text
grestore
53000 44900 54400 44900 10 line
54400 44900 54400 47500 10 line
54400 47500 53000 47500 10 line
53000 47500 53000 44900 10 line
52700 45100 53000 45100 10 line
gsave
false true false false 208.000000 [(6) ] 0 52900 45150 144.444443 text
grestore
gsave
false false false false 208.000000 [(Inh) ] 0 53050 45100 144.444443 text
grestore
54400 47200 54700 47200 10 line
gsave
false false false false 208.000000 [(13) ] 0 54500 47250 144.444443 text
grestore
gsave
false true false false 208.000000 [(X0) ] 0 54350 47200 144.444443 text
grestore
54400 46900 54700 46900 10 line
gsave
false false false false 208.000000 [(14) ] 0 54500 46950 144.444443 text
grestore
gsave
false true false false 208.000000 [(X1) ] 0 54350 46900 144.444443 text
grestore
54400 46600 54700 46600 10 line
gsave
false false false false 208.000000 [(15) ] 0 54500 46650 144.444443 text
grestore
gsave
false true false false 208.000000 [(X2) ] 0 54350 46600 144.444443 text
grestore
54400 46300 54700 46300 10 line
gsave
false false false false 208.000000 [(12) ] 0 54500 46350 144.444443 text
grestore
gsave
false true false false 208.000000 [(X3) ] 0 54350 46300 144.444443 text
grestore
54400 46000 54700 46000 10 line
gsave
false false false false 208.000000 [(1) ] 0 54500 46050 144.444443 text
grestore
gsave
false true false false 208.000000 [(X4) ] 0 54350 46000 144.444443 text
grestore
54400 45700 54700 45700 10 line
gsave
false false false false 208.000000 [(5) ] 0 54500 45750 144.444443 text
grestore
gsave
false true false false 208.000000 [(X5) ] 0 54350 45700 144.444443 text
grestore
54400 45400 54700 45400 10 line
gsave
false false false false 208.000000 [(2) ] 0 54500 45450 144.444443 text
grestore
gsave
false true false false 208.000000 [(X6) ] 0 54350 45400 144.444443 text
grestore
54400 45100 54700 45100 10 line
gsave
false false false false 208.000000 [(4) ] 0 54500 45150 144.444443 text
grestore
gsave
false true false false 208.000000 [(X7) ] 0 54350 45100 144.444443 text
grestore
gsave
false false false false 260.000000 [(4051) ] 0 53000 47540 180.555557 text
grestore
grestore
gsave
false true false false 260.000000 [(U2) ] 0 54400 47600 180.555557 text
grestore
gsave
45000 43000 45400 43000 10 line
45400 43000 45400 42700 10 line
45600 42500 45200 42500 10 line
45400 42500 45600 42700 10 line
45600 42700 45200 42700 10 line
45200 42700 45400 42500 10 line
45400 42500 45400 42100 10 line
45400 42100 45000 42100 10 line
46500 43000 46400 43000 10 line
46400 43000 46400 42800 10 line
46100 42800 46100 42400 10 line
46400 42800 46100 42700 10 line
46100 42500 46400 42400 10 line
46400 42400 46400 42100 10 line
46400 42100 46500 42100 10 line
46400 42400 46300 42500 10 line
46400 42400 46200 42400 10 line
45641 42590 45846 42665 10 line
45846 42665 45814 42609 10 line
45814 42609 46051 42693 10 line
45641 42516 45846 42591 10 line
45846 42591 45814 42535 10 line
45814 42535 46051 42619 10 line
45000 43000 44700 43000 10 line
gsave
false true false false 208.000000 [(1) ] 0 44900 43050 144.444443 text
grestore
45000 42100 44700 42100 10 line
gsave
false true false false 208.000000 [(2) ] 0 44900 42150 144.444443 text
grestore
46500 43000 46800 43000 10 line
gsave
false false false false 208.000000 [(5) ] 0 46600 43050 144.444443 text
grestore
46500 42100 46800 42100 10 line
gsave
false false false false 208.000000 [(4) ] 0 46600 42150 144.444443 text
grestore
46049 42691 45964 42685 10 line
46047 42691 45982 42650 10 line
46049 42618 45971 42614 10 line
46047 42618 45985 42575 10 line
gsave
false false false false 260.000000 [(4N25) ] 0 45000 43550 180.555557 text
grestore
46500 43400 46800 43400 10 line
gsave
false false false false 208.000000 [(6) ] 0 46600 43450 144.444443 text
grestore
45000 41800 46500 41800 10 line
46500 41800 46500 43500 10 line
46500 43500 45000 43500 10 line
45000 43500 45000 41800 10 line
46500 43400 46000 43400 10 line
46000 43400 46000 42600 10 line
46000 42600 46100 42600 10 line
grestore
gsave
false true false false 260.000000 [(U4) ] 0 46500 43600 180.555557 text
grestore
gsave
41600 50100 41900 50100 10 line
gsave
false false false false 208.000000 [(2) ] 0 40550 50050 144.444443 text
grestore
41600 50400 41900 50400 10 line
gsave
false false false false 208.000000 [(1) ] 0 40550 50350 144.444443 text
grestore
41600 50400 40700 50400 10 line
41600 50100 40700 50100 10 line
40200 49900 40700 49900 10 line
40700 49900 40700 50600 10 line
40700 50600 40200 50600 10 line
40200 50600 40200 49900 10 line
grestore
gsave
false false false false 260.000000 [(CONN_3) ] 0 40200 50700 180.555557 text
grestore
gsave
49400 43700 49250 43700 10 line
48500 43700 48650 43700 10 line
48650 43600 49250 43600 10 line
49250 43600 49250 43800 10 line
49250 43800 48650 43800 10 line
48650 43800 48650 43600 10 line
grestore
gsave
false false false false 260.000000 [(R2) ] 0 48700 43900 180.555557 text
grestore
gsave
42300 50400 42300 50600 10 line
42150 50600 42450 50600 10 line
gsave
false false false false 208.000000 [(+5V) ] 0 42175 50650 144.444443 text
grestore
grestore
gsave
42300 49900 42300 50100 10 line
42200 49900 42400 49900 10 line
42255 49850 42345 49850 10 line
42280 49810 42320 49810 10 line
grestore
42300 50100 41900 50100 10 line
42300 50400 41900 50400 10 line
gsave
47100 41900 47100 42100 10 line
47000 41900 47200 41900 10 line
47055 41850 47145 41850 10 line
47080 41810 47120 41810 10 line
grestore
46800 42100 47100 42100 10 line
gsave
49400 43700 49400 43900 10 line
49250 43900 49550 43900 10 line
gsave
false false false false 208.000000 [(+5V) ] 0 49275 43950 144.444443 text
grestore
grestore
42600 43000 44700 43000 10 line
gsave
52700 44400 53000 44400 10 line
gsave
false true false false 208.000000 [(11) ] 0 52900 44450 144.444443 text
grestore
gsave
false false false false 208.000000 [(A) ] 0 53050 44400 144.444443 text
grestore
52700 44100 53000 44100 10 line
gsave
false true false false 208.000000 [(10) ] 0 52900 44150 144.444443 text
grestore
gsave
false false false false 208.000000 [(B) ] 0 53050 44100 144.444443 text
grestore
52700 43800 53000 43800 10 line
gsave
false true false false 208.000000 [(9) ] 0 52900 43850 144.444443 text
grestore
gsave
false false false false 208.000000 [(C) ] 0 53050 43800 144.444443 text
grestore
52700 43400 53000 43400 10 line
gsave
false true false false 208.000000 [(3) ] 0 52900 43450 144.444443 text
grestore
gsave
false false false false 208.000000 [(X) ] 0 53050 43400 144.444443 text
grestore
53000 42100 54400 42100 10 line
54400 42100 54400 44700 10 line
54400 44700 53000 44700 10 line
53000 44700 53000 42100 10 line
52700 42300 53000 42300 10 line
gsave
false true false false 208.000000 [(6) ] 0 52900 42350 144.444443 text
grestore
gsave
false false false false 208.000000 [(Inh) ] 0 53050 42300 144.444443 text
grestore
54400 44400 54700 44400 10 line
gsave
false false false false 208.000000 [(13) ] 0 54500 44450 144.444443 text
grestore
gsave
false true false false 208.000000 [(X0) ] 0 54350 44400 144.444443 text
grestore
54400 44100 54700 44100 10 line
gsave
false false false false 208.000000 [(14) ] 0 54500 44150 144.444443 text
grestore
gsave
false true false false 208.000000 [(X1) ] 0 54350 44100 144.444443 text
grestore
54400 43800 54700 43800 10 line
gsave
false false false false 208.000000 [(15) ] 0 54500 43850 144.444443 text
grestore
gsave
false true false false 208.000000 [(X2) ] 0 54350 43800 144.444443 text
grestore
54400 43500 54700 43500 10 line
gsave
false false false false 208.000000 [(12) ] 0 54500 43550 144.444443 text
grestore
gsave
false true false false 208.000000 [(X3) ] 0 54350 43500 144.444443 text
grestore
54400 43200 54700 43200 10 line
gsave
false false false false 208.000000 [(1) ] 0 54500 43250 144.444443 text
grestore
gsave
false true false false 208.000000 [(X4) ] 0 54350 43200 144.444443 text
grestore
54400 42900 54700 42900 10 line
gsave
false false false false 208.000000 [(5) ] 0 54500 42950 144.444443 text
grestore
gsave
false true false false 208.000000 [(X5) ] 0 54350 42900 144.444443 text
grestore
54400 42600 54700 42600 10 line
gsave
false false false false 208.000000 [(2) ] 0 54500 42650 144.444443 text
grestore
gsave
false true false false 208.000000 [(X6) ] 0 54350 42600 144.444443 text
grestore
54400 42300 54700 42300 10 line
gsave
false false false false 208.000000 [(4) ] 0 54500 42350 144.444443 text
grestore
gsave
false true false false 208.000000 [(X7) ] 0 54350 42300 144.444443 text
grestore
gsave
false false false false 260.000000 [(4051) ] 0 53000 44740 180.555557 text
grestore
grestore
gsave
false true false false 260.000000 [(U3) ] 0 54400 44800 180.555557 text
grestore
gsave
55400 44100 55100 44100 10 line
gsave
false true false false 208.000000 [(2) ] 0 56550 44050 144.444443 text
grestore
55400 43500 55100 43500 10 line
gsave
false true false false 208.000000 [(4) ] 0 56550 43450 144.444443 text
grestore
55400 42900 55100 42900 10 line
gsave
false true false false 208.000000 [(6) ] 0 56550 42850 144.444443 text
grestore
55400 42300 55100 42300 10 line
gsave
false true false false 208.000000 [(8) ] 0 56550 42250 144.444443 text
grestore
55400 44400 55100 44400 10 line
gsave
false true false false 208.000000 [(1) ] 0 56550 44350 144.444443 text
grestore
55400 43800 55100 43800 10 line
gsave
false true false false 208.000000 [(3) ] 0 56550 43750 144.444443 text
grestore
55400 43200 55100 43200 10 line
gsave
false true false false 208.000000 [(5) ] 0 56550 43150 144.444443 text
grestore
55400 42600 55100 42600 10 line
gsave
false true false false 208.000000 [(7) ] 0 56550 42550 144.444443 text
grestore
55400 44400 56300 44400 10 line
55400 44100 56300 44100 10 line
55400 43800 56300 43800 10 line
55400 43500 56300 43500 10 line
55400 43200 56300 43200 10 line
55400 42900 56300 42900 10 line
55400 42600 56300 42600 10 line
55400 42300 56300 42300 10 line
56300 42100 56800 42100 10 line
56800 42100 56800 44600 10 line
56800 44600 56300 44600 10 line
56300 44600 56300 42100 10 line
grestore
gsave
false true false false 260.000000 [(CONN_5) ] 0 56700 44700 180.555557 text
grestore
gsave
53100 49100 53100 48800 10 line
gsave
false false false false 208.000000 [(2) ] 270 53050 50250 144.444443 text
grestore
52500 49100 52500 48800 10 line
gsave
false false false false 208.000000 [(4) ] 270 52450 50250 144.444443 text
grestore
51900 49100 51900 48800 10 line
gsave
false false false false 208.000000 [(6) ] 270 51850 50250 144.444443 text
grestore
53400 49100 53400 48800 10 line
gsave
false false false false 208.000000 [(1) ] 270 53350 50250 144.444443 text
grestore
52800 49100 52800 48800 10 line
gsave
false false false false 208.000000 [(3) ] 270 52750 50250 144.444443 text
grestore
52200 49100 52200 48800 10 line
gsave
false false false false 208.000000 [(5) ] 270 52150 50250 144.444443 text
grestore
53400 49100 53400 50000 10 line
53100 49100 53100 50000 10 line
52800 49100 52800 50000 10 line
52500 49100 52500 50000 10 line
52200 49100 52200 50000 10 line
51900 49100 51900 50000 10 line
51700 50000 53600 50000 10 line
53600 50000 53600 50500 10 line
53600 50500 51700 50500 10 line
51700 50500 51700 50000 10 line
grestore
gsave
false false false false 260.000000 [(CONN_2) ] 270 53700 50400 180.555557 text
grestore
gsave
48000 47900 48200 47900 10 line
48900 47900 48700 47900 10 line
48400 48000 48500 47900 10 line
48500 47900 48400 47800 10 line
48400 48000 48400 47800 10 line
48500 48000 48500 47800 10 line
48500 47900 48700 47900 10 line
48400 47900 48200 47900 10 line
48430 48040 48530 48140 10 line
48530 48140 48480 48110 10 line
48530 48140 48500 48090 10 line
48500 48040 48600 48140 10 line
48600 48140 48550 48110 10 line
48600 48140 48570 48090 10 line
grestore
gsave
false false false false 260.000000 [(D2) ] 0 48800 48100 180.555557 text
grestore
gsave
48850 46900 48700 46900 10 line
49100 46900 48999 46848 10 line
49099 46901 48998 46953 10 line
49100 47000 49300 46900 10 line
49300 46900 49100 46800 10 line
49100 46800 49300 46700 10 line
49300 46700 49100 46600 10 line
49100 47000 49300 47100 10 line
49300 47100 49200 47150 10 line
49200 47300 49200 47150 10 line
49200 46400 49200 46552 10 line
49100 46601 49200 46550 10 line
49100 46900 48850 46900 10 line
grestore
gsave
false false false false 260.000000 [(R5) ] 90 48900 47000 180.555557 text
grestore
gsave
43900 47000 43900 47200 10 line
43750 47200 44050 47200 10 line
gsave
false false false false 208.000000 [(+5V) ] 0 43775 47250 144.444443 text
grestore
grestore
44500 46900 43900 46900 10 line
43900 46700 43900 47000 10 line
44500 46700 43900 46700 10 line
54700 44400 55100 44400 10 line
55100 44100 54700 44100 10 line
54700 43800 55100 43800 10 line
55100 43500 54700 43500 10 line
54700 43200 55100 43200 10 line
55100 42900 54700 42900 10 line
54700 42600 55100 42600 10 line
55100 42300 54700 42300 10 line
gsave
47100 47900 47250 47900 10 line
48000 47900 47850 47900 10 line
47250 47800 47850 47800 10 line
47850 47800 47850 48000 10 line
47850 48000 47250 48000 10 line
47250 48000 47250 47800 10 line
grestore
gsave
false true false true 260.000000 [(R4) ] 0 47800 47700 180.555557 text
grestore
gsave
49100 47900 48900 47900 10 line
49100 47800 49100 48000 10 line
49150 47855 49150 47945 10 line
49190 47880 49190 47920 10 line
grestore
gsave
43500 46300 43700 46300 10 line
43500 46400 43500 46200 10 line
43450 46345 43450 46255 10 line
43410 46320 43410 46280 10 line
grestore
44500 46300 43700 46300 10 line
44100 46300 44100 46100 10 line
44100 46100 44500 46100 10 line
gsave
51900 48600 51900 48800 10 line
52000 48600 51800 48600 10 line
51945 48550 51855 48550 10 line
51920 48510 51880 48510 10 line
grestore
gsave
53100 48800 53100 48600 10 line
53250 48600 52950 48600 10 line
gsave
false true false true 208.000000 [(+5V) ] 0 53225 48550 144.444443 text
grestore
grestore
48000 46900 48700 46900 10 line
gsave
49200 46400 49200 46200 10 line
49350 46200 49050 46200 10 line
gsave
false true false true 208.000000 [(+5V) ] 0 49325 46150 144.444443 text
grestore
grestore
gsave
49200 47500 49200 47300 10 line
49100 47500 49300 47500 10 line
49155 47550 49245 47550 10 line
49180 47590 49220 47590 10 line
grestore
52700 46200 52300 46200 10 line
52300 46200 52300 43400 10 line
52300 43400 52700 43400 10 line
51200 48400 52200 48400 10 line
52200 48400 52200 48800 10 line
gsave
55500 46900 55200 46900 10 line
gsave
false true false false 208.000000 [(2) ] 0 56650 46850 144.444443 text
grestore
55500 46300 55200 46300 10 line
gsave
false true false false 208.000000 [(4) ] 0 56650 46250 144.444443 text
grestore
55500 45700 55200 45700 10 line
gsave
false true false false 208.000000 [(6) ] 0 56650 45650 144.444443 text
grestore
55500 45100 55200 45100 10 line
gsave
false true false false 208.000000 [(8) ] 0 56650 45050 144.444443 text
grestore
55500 47200 55200 47200 10 line
gsave
false true false false 208.000000 [(1) ] 0 56650 47150 144.444443 text
grestore
55500 46600 55200 46600 10 line
gsave
false true false false 208.000000 [(3) ] 0 56650 46550 144.444443 text
grestore
55500 46000 55200 46000 10 line
gsave
false true false false 208.000000 [(5) ] 0 56650 45950 144.444443 text
grestore
55500 45400 55200 45400 10 line
gsave
false true false false 208.000000 [(7) ] 0 56650 45350 144.444443 text
grestore
55500 47200 56400 47200 10 line
55500 46900 56400 46900 10 line
55500 46600 56400 46600 10 line
55500 46300 56400 46300 10 line
55500 46000 56400 46000 10 line
55500 45700 56400 45700 10 line
55500 45400 56400 45400 10 line
55500 45100 56400 45100 10 line
56400 44900 56900 44900 10 line
56900 44900 56900 47400 10 line
56900 47400 56400 47400 10 line
56400 47400 56400 44900 10 line
grestore
gsave
false true false false 260.000000 [(CONN_4) ] 0 56800 47500 180.555557 text
grestore
54700 47200 55200 47200 10 line
54700 46900 55200 46900 10 line
54700 46600 55200 46600 10 line
54700 46300 55200 46300 10 line
54700 46000 55200 46000 10 line
54700 45700 55200 45700 10 line
54700 45400 55200 45400 10 line
54700 45100 55200 45100 10 line
gsave
44800 44100 46800 44100 10 line
46800 44100 46800 49100 10 line
46800 49100 44800 49100 10 line
44800 49100 44800 44100 10 line
44500 48700 44700 48700 10 line
gsave
false false false false 260.000000 [(\\_RESET\\_) ] 0 44855 48695 180.555557 text
grestore
gsave
false true false false 260.000000 [(1) ] 0 44705 48745 180.555557 text
grestore
44500 47700 44800 47700 10 line
gsave
false false false false 260.000000 [(XTAL1) ] 0 44855 47695 180.555557 text
grestore
gsave
false true false false 260.000000 [(9) ] 0 44705 47745 180.555557 text
grestore
44500 47500 44800 47500 10 line
gsave
false false false false 260.000000 [(XTAL2) ] 0 44855 47495 180.555557 text
grestore
gsave
false true false false 260.000000 [(10) ] 0 44705 47545 180.555557 text
grestore
44500 46700 44800 46700 10 line
gsave
false false false false 260.000000 [(VCC) ] 0 44855 46695 180.555557 text
grestore
gsave
false true false false 260.000000 [(7) ] 0 44705 46745 180.555557 text
grestore
44500 46300 44800 46300 10 line
gsave
false false false false 260.000000 [(GND) ] 0 44855 46295 180.555557 text
grestore
gsave
false true false false 260.000000 [(8) ] 0 44705 46345 180.555557 text
grestore
47100 48700 46800 48700 10 line
gsave
false true false false 260.000000 [(PB5) ] 0 46745 48695 180.555557 text
grestore
gsave
false false false false 260.000000 [(19) ] 0 46895 48745 180.555557 text
grestore
47100 48500 46800 48500 10 line
gsave
false true false false 260.000000 [(PB4) ] 0 46745 48495 180.555557 text
grestore
gsave
false false false false 260.000000 [(18) ] 0 46895 48545 180.555557 text
grestore
47100 48300 46800 48300 10 line
gsave
false true false false 260.000000 [(PB3) ] 0 46745 48295 180.555557 text
grestore
gsave
false false false false 260.000000 [(17) ] 0 46895 48345 180.555557 text
grestore
47100 48100 46800 48100 10 line
gsave
false true false false 260.000000 [(PB2) ] 0 46745 48095 180.555557 text
grestore
gsave
false false false false 260.000000 [(16) ] 0 46895 48145 180.555557 text
grestore
47100 47900 46800 47900 10 line
gsave
false true false false 260.000000 [(PB1) ] 0 46745 47895 180.555557 text
grestore
gsave
false false false false 260.000000 [(15) ] 0 46895 47945 180.555557 text
grestore
47100 47700 46800 47700 10 line
gsave
false true false false 260.000000 [(PB0) ] 0 46745 47695 180.555557 text
grestore
gsave
false false false false 260.000000 [(14) ] 0 46895 47745 180.555557 text
grestore
47100 47300 46800 47300 10 line
gsave
false true false false 260.000000 [(PC5) ] 0 46745 47295 180.555557 text
grestore
gsave
false false false false 260.000000 [(28) ] 0 46895 47345 180.555557 text
grestore
47100 47100 46800 47100 10 line
gsave
false true false false 260.000000 [(PC4) ] 0 46745 47095 180.555557 text
grestore
gsave
false false false false 260.000000 [(27) ] 0 46895 47145 180.555557 text
grestore
47100 46900 46800 46900 10 line
gsave
false true false false 260.000000 [(PC3) ] 0 46745 46895 180.555557 text
grestore
gsave
false false false false 260.000000 [(26) ] 0 46895 46945 180.555557 text
grestore
47100 46700 46800 46700 10 line
gsave
false true false false 260.000000 [(PC2) ] 0 46745 46695 180.555557 text
grestore
gsave
false false false false 260.000000 [(25) ] 0 46895 46745 180.555557 text
grestore
47100 46500 46800 46500 10 line
gsave
false true false false 260.000000 [(PC1) ] 0 46745 46495 180.555557 text
grestore
gsave
false false false false 260.000000 [(24) ] 0 46895 46545 180.555557 text
grestore
47100 46300 46800 46300 10 line
gsave
false true false false 260.000000 [(PC0) ] 0 46745 46295 180.555557 text
grestore
gsave
false false false false 260.000000 [(23) ] 0 46895 46345 180.555557 text
grestore
47100 45900 46800 45900 10 line
gsave
false true false false 260.000000 [(PD7) ] 0 46745 45895 180.555557 text
grestore
gsave
false false false false 260.000000 [(13) ] 0 46895 45945 180.555557 text
grestore
47100 45700 46800 45700 10 line
gsave
false true false false 260.000000 [(PD6) ] 0 46745 45695 180.555557 text
grestore
gsave
false false false false 260.000000 [(12) ] 0 46895 45745 180.555557 text
grestore
47100 45500 46800 45500 10 line
gsave
false true false false 260.000000 [(PD5) ] 0 46745 45495 180.555557 text
grestore
gsave
false false false false 260.000000 [(11) ] 0 46895 45545 180.555557 text
grestore
47100 45300 46800 45300 10 line
gsave
false true false false 260.000000 [(PD4) ] 0 46745 45295 180.555557 text
grestore
gsave
false false false false 260.000000 [(10) ] 0 46895 45345 180.555557 text
grestore
47100 45100 46800 45100 10 line
gsave
false true false false 260.000000 [(PD3) ] 0 46745 45095 180.555557 text
grestore
gsave
false false false false 260.000000 [(5) ] 0 46895 45145 180.555557 text
grestore
47100 44900 46800 44900 10 line
gsave
false true false false 260.000000 [(PD2) ] 0 46745 44895 180.555557 text
grestore
gsave
false false false false 260.000000 [(4) ] 0 46895 44945 180.555557 text
grestore
47100 44700 46800 44700 10 line
gsave
false true false false 260.000000 [(PD1\(TX\)) ] 0 46745 44695 180.555557 text
grestore
gsave
false false false false 260.000000 [(3) ] 0 46895 44745 180.555557 text
grestore
47100 44500 46800 44500 10 line
gsave
false true false false 260.000000 [(PD0\(RX\)) ] 0 46745 44495 180.555557 text
grestore
gsave
false false false false 260.000000 [(2) ] 0 46895 44545 180.555557 text
grestore
46600 47600 46300 47600 10 line
46300 47600 46300 48900 10 line
46600 48900 46300 48900 10 line
46600 46200 46300 46200 10 line
46300 46200 46300 47500 10 line
46600 47500 46300 47500 10 line
46600 46100 45900 46100 10 line
45900 46100 45900 44400 10 line
45900 44400 46600 44400 10 line
44500 46100 44800 46100 10 line
gsave
false false false false 260.000000 [(GND) ] 0 44855 46095 180.555557 text
grestore
gsave
false true false false 260.000000 [(22) ] 0 44705 46145 180.555557 text
grestore
44500 45000 44800 45000 10 line
gsave
false false false false 260.000000 [(AREF) ] 0 44855 44995 180.555557 text
grestore
gsave
false true false false 260.000000 [(21) ] 0 44705 45045 180.555557 text
grestore
44500 46900 44800 46900 10 line
gsave
false false false false 260.000000 [(AVCC) ] 0 44855 46895 180.555557 text
grestore
gsave
false true false false 260.000000 [(20) ] 0 44705 46945 180.555557 text
grestore
44750 48700 50 0 360 10 darc
gsave
false false false false 260.000000 [(ATMega328) ] 0 44800 49200 180.555557 text
grestore
grestore
gsave
false false false false 260.000000 [(U1) ] 0 46400 49200 180.555557 text
grestore
gsave
43600 48700 43750 48700 10 line
44500 48700 44350 48700 10 line
43750 48600 44350 48600 10 line
44350 48600 44350 48800 10 line
44350 48800 43750 48800 10 line
43750 48800 43750 48600 10 line
grestore
gsave
false true false true 260.000000 [(R3) ] 0 44300 48500 180.555557 text
grestore
gsave
43600 48700 43600 48900 10 line
43450 48900 43750 48900 10 line
gsave
false false false false 208.000000 [(+5V) ] 0 43475 48950 144.444443 text
grestore
grestore
44500 48700 44500 49800 10 line
44500 49800 51200 49800 10 line
51200 49800 51200 48400 10 line
44500 47700 43200 47700 10 line
44500 47500 43500 47500 10 line
gsave
42100 47700 42300 47700 10 line
42100 47600 42100 47800 10 line
42050 47655 42050 47745 10 line
42010 47680 42010 47720 10 line
grestore
gsave
43200 47700 43000 47700 10 line
42300 47700 42500 47700 10 line
42800 47900 42800 47500 10 line
42700 47900 42700 47500 10 line
42500 47700 42700 47700 10 line
42800 47700 43000 47700 10 line
grestore
gsave
false true false false 260.000000 [(C1) ] 0 43000 48000 180.555557 text
grestore
gsave
43200 47000 43200 47200 10 line
43200 47500 43200 47700 10 line
43100 47250 43300 47250 10 line
43300 47250 43300 47450 10 line
43300 47450 43100 47450 10 line
43100 47450 43100 47250 10 line
43340 47200 43060 47200 10 line
43340 47500 43060 47500 10 line
grestore
gsave
false false false true 260.000000 [(X1) ] 90 43400 47200 180.555557 text
grestore
43500 47500 43500 47000 10 line
43500 47000 43200 47000 10 line
gsave
43200 47000 43000 47000 10 line
42300 47000 42500 47000 10 line
42800 47200 42800 46800 10 line
42700 47200 42700 46800 10 line
42500 47000 42700 47000 10 line
42800 47000 43000 47000 10 line
grestore
gsave
false true false false 260.000000 [(C2) ] 0 43000 47300 180.555557 text
grestore
gsave
42100 47000 42300 47000 10 line
42100 46900 42100 47100 10 line
42050 46955 42050 47045 10 line
42010 46980 42010 47020 10 line
grestore
47100 48700 50500 48700 10 line
50500 48700 50500 48000 10 line
50500 48000 52800 48000 10 line
52800 48000 52800 48800 10 line
47100 48500 50300 48500 10 line
50300 48500 50300 47800 10 line
50300 47800 53400 47800 10 line
53400 47800 53400 48800 10 line
47100 48200 52500 48200 10 line
52500 48200 52500 48800 10 line
47100 48300 47100 48200 10 line
47100 47700 50000 47700 10 line
50000 46600 50000 47700 10 line
50000 46600 52700 46600 10 line
47100 46300 48000 46300 10 line
48000 46300 48000 46900 10 line
47100 45900 51500 45900 10 line
51500 45900 51500 46900 10 line
51500 46900 52700 46900 10 line
47100 45700 52000 45700 10 line
52000 45700 52000 47200 10 line
52000 47200 52700 47200 10 line
50000 43800 52700 43800 10 line
47100 44500 48000 44500 10 line
48000 44500 48000 43000 10 line
48000 43000 46800 43000 10 line
48500 43700 48000 43700 10 line
gsave
43800 42400 44200 42400 10 line
43800 42400 44000 42700 10 line
44000 42700 44200 42400 10 line
43800 42700 44200 42700 10 line
44000 42100 44000 42300 10 line
44000 43000 44000 42800 10 line
44000 42800 44000 42700 10 line
44000 42400 44000 42300 10 line
newpath
44000 42100
25
0 360 arc
fill
newpath
44000 42100
25
0 360 arc
fill
newpath
44000 43000
25
0 360 arc
fill
newpath
44000 43000
25
0 360 arc
fill
grestore
gsave
false false false false 260.000000 [(D1) ] 90 43700 42400 180.555557 text
grestore
gsave
42600 42100 42750 42100 10 line
43500 42100 43350 42100 10 line
42750 42000 43350 42000 10 line
43350 42000 43350 42200 10 line
43350 42200 42750 42200 10 line
42750 42200 42750 42000 10 line
grestore
gsave
false true false true 260.000000 [(R1) ] 0 43300 41900 180.555557 text
grestore
gsave
42300 42100 42600 42100 10 line
gsave
false false false false 208.000000 [(2) ] 0 41250 42050 144.444443 text
grestore
42300 42400 42600 42400 10 line
gsave
false false false false 208.000000 [(1) ] 0 41250 42350 144.444443 text
grestore
42300 42400 41400 42400 10 line
42300 42100 41400 42100 10 line
40900 41900 41400 41900 10 line
41400 41900 41400 42600 10 line
41400 42600 40900 42600 10 line
40900 42600 40900 41900 10 line
grestore
gsave
false false false false 260.000000 [(CONN_1) ] 0 40900 42700 180.555557 text
grestore
43500 42100 44700 42100 10 line
42600 43000 42600 42400 10 line
49800 44100 52700 44100 10 line
49600 44400 52700 44400 10 line
50500 45500 50500 42300 10 line
50500 42300 52700 42300 10 line
47100 45500 52700 45500 10 line
52700 45500 52700 45100 10 line
47100 45300 50000 45300 10 line
50000 45300 50000 43800 10 line
49800 44100 49800 45100 10 line
49800 45100 47100 45100 10 line
49600 44400 49600 44900 10 line
49600 44900 47100 44900 10 line
newpath
44000 43000
25
0 360 arc
fill
newpath
43900 46900
25
0 360 arc
fill
newpath
43900 46900
25
0 360 arc
fill
newpath
43900 46900
25
0 360 arc
fill
newpath
44100 46300
25
0 360 arc
fill
newpath
44100 46300
25
0 360 arc
fill
newpath
44100 46300
25
0 360 arc
fill
newpath
44500 48700
25
0 360 arc
fill
newpath
43200 47700
25
0 360 arc
fill
newpath
43200 47000
25
0 360 arc
fill
newpath
48000 43700
25
0 360 arc
fill
newpath
48000 43700
25
0 360 arc
fill
newpath
48000 43700
25
0 360 arc
fill
newpath
44000 42100
25
0 360 arc
fill
newpath
44000 42100
25
0 360 arc
fill
newpath
44000 43000
25
0 360 arc
fill
newpath
44000 43000
25
0 360 arc
fill
newpath
44000 42100
25
0 360 arc
fill
newpath
50500 45500
25
0 360 arc
fill
newpath
50500 45500
25
0 360 arc
fill
newpath
50500 45500
25
0 360 arc
fill
showpage
%%End
