v 20110115 2
C 40000 40000 0 0 0 title-B.sym
C 52700 45100 1 0 0 4051-1.sym
{
T 53000 47950 5 10 0 0 0 0 1
device=4051
T 54400 47800 5 10 1 1 0 6 1
refdes=U2
T 52700 45100 5 10 0 2 0 0 1
footprint=DIP-mM-P0254_N016_L2032_W0560
}
C 40500 48300 1 0 0 4N25-1.sym
{
T 41400 50300 5 10 0 0 0 0 1
device=4N25
T 42300 50100 5 10 1 1 0 6 1
refdes=U3
T 40500 48300 5 10 0 0 0 0 1
footprint=DIP-mM-P0254_N006_L0762_W0560
}
C 44400 41600 1 0 0 connector2-1.sym
{
T 44600 42600 5 10 0 0 0 0 1
device=CONNECTOR_2
T 44400 42400 5 10 1 1 0 0 1
refdes=CONN_3
T 44400 41600 5 10 0 0 0 0 1
footprint=H1x2-op
}
C 43500 49900 1 0 0 resistor-2.sym
{
T 43900 50250 5 10 0 0 0 0 1
device=RESISTOR
T 43700 50200 5 10 1 1 0 0 1
refdes=R2
T 43500 49900 5 10 0 0 0 0 1
footprint=RES-mM-P1016_L0635_W0229
T 43500 49900 5 10 0 1 0 0 1
value=3300
}
C 41400 46200 1 180 0 diode-1.sym
{
T 41000 45600 5 10 0 0 180 0 1
device=DIODE
T 41100 45700 5 10 1 1 180 0 1
refdes=D1
T 41400 46200 5 10 0 0 0 0 1
footprint=DIO-mM-P0254_D0254
}
C 46300 42100 1 0 0 5V-plus-1.sym
C 46400 41500 1 0 0 gnd-1.sym
N 46500 41800 46100 41800 4
N 46500 42100 46100 42100 4
N 42600 49500 50800 49500 4
C 42800 48300 1 0 0 gnd-1.sym
N 42600 48600 42900 48600 4
C 44200 50000 1 0 0 5V-plus-1.sym
N 40500 49500 40100 49500 4
N 40100 46000 40100 49500 4
N 40100 46000 40500 46000 4
N 40500 48600 40500 47000 4
N 40500 47000 41500 47000 4
N 41500 47000 41500 46000 4
N 41500 46000 41400 46000 4
N 41400 46000 41400 45500 4
N 41400 45500 42000 45500 4
C 42100 44600 1 90 0 resistor-2.sym
{
T 41750 45000 5 10 0 0 90 0 1
device=RESISTOR
T 41800 44800 5 10 1 1 90 0 1
refdes=R1
T 42100 44600 5 10 0 0 0 0 1
footprint=RES-mM-P1016_L0635_W0229
T 42100 44600 5 10 0 1 0 0 1
value=220
}
N 42000 44600 42000 44300 4
N 42000 44300 42400 44300 4
N 42400 44300 42400 43700 4
N 40500 46000 40500 44200 4
N 40500 44200 42100 44200 4
N 42100 44200 42100 43700 4
C 52700 42300 1 0 0 4051-1.sym
{
T 53000 45150 5 10 0 0 0 0 1
device=4051
T 54400 45000 5 10 1 1 0 6 1
refdes=U2
T 52700 42300 5 10 0 2 0 0 1
footprint=DIP-mM-P0254_N016_L2032_W0560
}
C 44200 43200 1 0 0 ATmega328.sym
{
T 46200 46100 5 10 1 1 0 6 1
refdes=U_1
T 43700 45400 5 10 0 0 0 0 1
device=Atmega328
T 43700 45600 5 10 0 0 0 0 1
footprint=32tqfp
}
C 56800 44800 1 180 0 connector8-1.sym
{
T 56700 41600 5 10 0 0 180 0 1
device=CONNECTOR_8
T 56700 42200 5 10 1 1 180 0 1
refdes=CONN_5
}
C 51700 50500 1 270 0 connector6-1.sym
{
T 53500 48700 5 10 0 0 270 0 1
device=CONNECTOR_6
T 53700 50400 5 10 1 1 270 0 1
refdes=CONN_2
}
C 48700 48500 1 0 0 led-2.sym
{
T 49500 48800 5 10 1 1 0 0 1
refdes=D?
T 48800 49100 5 10 0 0 0 0 1
device=LED
}
C 48600 46200 1 90 0 pot-bourns.sym
{
T 47700 47000 5 10 0 0 90 0 1
device=VARIABLE_RESISTOR
T 48200 46800 5 10 1 1 90 0 1
refdes=R?
}
C 42600 42000 1 90 0 connector2-1_MIDI_IN.sym
{
T 41600 42200 5 10 1 1 90 0 1
device=MIDI_IN
T 41800 42000 5 10 1 1 90 0 1
refdes=CONN_1
}
N 43500 50000 43500 49500 4
N 50800 49500 50800 45400 4
N 50800 45400 47800 45400 4
C 43400 48800 1 0 0 5V-plus-1.sym
N 44200 48700 43600 48700 4
N 43600 48300 43600 48800 4
N 44200 48500 43600 48500 4
N 44200 48300 43600 48300 4
N 47800 45800 49500 45800 4
C 50400 45900 1 180 0 resistor-2.sym
{
T 50000 45550 5 10 0 0 180 0 1
device=RESISTOR
T 50200 45600 5 10 1 1 180 0 1
refdes=R3
T 50400 45900 5 10 0 0 90 0 1
footprint=RES-mM-P1016_L0635_W0229
T 50400 45900 5 10 0 1 90 0 1
value=10000
}
C 50300 45900 1 0 0 5V-plus-1.sym
N 50400 45800 50500 45800 4
N 50500 45800 50500 45900 4
N 47800 45000 52000 45000 4
N 54700 47400 55100 47400 4
N 54700 47100 55100 47100 4
N 55100 46800 54700 46800 4
N 54700 46500 55100 46500 4
N 55100 46200 54700 46200 4
N 54700 45900 55100 45900 4
N 55100 45600 54700 45600 4
N 54700 45300 55100 45300 4
N 54700 44600 55100 44600 4
N 55100 44300 54700 44300 4
N 54700 44000 55100 44000 4
N 55100 43700 54700 43700 4
N 54700 43400 55100 43400 4
N 55100 43100 54700 43100 4
N 54700 42800 55100 42800 4
N 55100 42500 54700 42500 4
C 56800 45100 1 0 1 connector8-1_Lettres.sym
{
T 56700 48300 5 10 0 0 0 6 1
device=CONNECTOR_8
T 56700 47700 5 10 1 1 0 6 1
refdes=CONN_4
}
N 47800 44800 51000 44800 4
N 47800 44600 51200 44600 4
N 47800 44400 51400 44400 4
C 49200 47400 1 0 0 capacitor-1.sym
{
T 49400 48100 5 10 0 0 0 0 1
device=CAPACITOR
T 49400 47900 5 10 1 1 0 0 1
refdes=C?
T 49400 48300 5 10 0 0 0 0 1
symversion=0.1
}
C 49200 46700 1 0 0 capacitor-1.sym
{
T 49400 47400 5 10 0 0 0 0 1
device=CAPACITOR
T 49400 47200 5 10 1 1 0 0 1
refdes=C?
T 49400 47600 5 10 0 0 0 0 1
symversion=0.1
}
C 49300 46900 1 90 0 crystal-1.sym
{
T 48800 47100 5 10 0 0 90 0 1
device=CRYSTAL
T 49000 47100 5 10 1 1 90 0 1
refdes=U?
T 48600 47100 5 10 0 0 90 0 1
symversion=0.1
}
N 47800 47600 49200 47600 4
C 50400 47500 1 90 0 gnd-1.sym
C 50400 46800 1 90 0 gnd-1.sym
N 47800 44200 51600 44200 4
N 47800 44000 51800 44000 4
N 47800 48800 51000 48800 4
C 48700 48700 1 180 0 resistor-2.sym
{
T 48300 48350 5 10 0 0 180 0 1
device=RESISTOR
T 48500 48400 5 10 1 1 180 0 1
refdes=R4
T 48700 48700 5 10 0 0 90 0 1
footprint=RES-mM-P1016_L0635_W0229
T 48700 48700 5 10 0 1 90 0 1
value=220
}
C 49900 48500 1 90 0 gnd-1.sym
N 47800 48000 53400 48000 4
N 47800 47800 52800 47800 4
C 43100 47400 1 270 0 gnd-1.sym
N 44200 47300 43400 47300 4
N 43800 47300 43800 47100 4
N 43800 47100 44200 47100 4
N 44200 47100 44200 46900 4
C 52000 48500 1 0 1 gnd-1.sym
C 53300 48800 1 180 0 5V-plus-1.sym
N 47800 47000 48000 47000 4
C 48700 46200 1 180 0 5V-plus-1.sym
C 48400 47400 1 180 1 gnd-1.sym
N 52700 46400 52300 46400 4
N 52300 46400 52300 43600 4
N 52300 43600 52700 43600 4
N 52700 45300 52000 45300 4
N 52000 45300 52000 42500 4
N 52000 42500 52700 42500 4
N 51800 44000 51800 44300 4
N 51800 44300 52700 44300 4
N 51600 44200 51600 44600 4
N 51600 44600 52700 44600 4
N 51400 44400 51400 46800 4
N 51400 46800 52700 46800 4
N 51200 44600 51200 47100 4
N 51200 47100 52700 47100 4
N 51000 44800 51000 47400 4
N 51000 47400 52700 47400 4
N 52700 44000 52500 44000 4
N 52500 44000 52500 47600 4
N 52500 47600 51000 47600 4
N 51000 47600 51000 48800 4
N 47800 48200 52500 48200 4
N 53400 48000 53400 48800 4
N 52500 48200 52500 48800 4
N 52800 47800 52800 48800 4
N 49500 45800 49500 46400 4
N 49500 46400 50600 46400 4
N 50600 46400 50600 48400 4
N 50600 48400 52200 48400 4
N 52200 48400 52200 48800 4
N 47800 47400 48900 47400 4
N 48900 47400 48900 46900 4
N 48900 46900 49200 46900 4
N 48000 47000 48000 46700 4
